[
  {
    "description": "Update NodeJS to 12 LTS version.",
    "type": "major"
  },
  {
    "description": "Update the Serverless Framework to 2.* version.",
    "type": "major"
  },
  {
    "description": "Add support for Python: serverless-python-requirements, serverless-wsgi.",
    "type": "minor"
  }
]